[
    {
        "name": "Heading Override",
        "handle": "headingOverride",
        "instructions": "",
        "required": false,
        "translatable": 0,
        "type": "PlainText",
        "settings": {
            "placeholder": "",
            "maxLength": "",
            "multiline": "",
            "initialRows": 4
        }
    },
    {
        "name": "Meta Description",
        "handle": "metaDescription",
        "instructions": "",
        "required": false,
        "translatable": 0,
        "type": "RichText",
        "settings": {
            "configFile": "Standard.json",
            "availableAssetSources": "*",
            "availableTransforms": "*",
            "cleanupHtml": 1,
            "purifyHtml": 1,
            "columnType": "text"
        }
    },
    {
        "name": "Meta Title",
        "handle": "metaTitle",
        "instructions": "",
        "required": false,
        "translatable": 0,
        "type": "PlainText",
        "settings": {
            "placeholder": "",
            "maxLength": "",
            "multiline": "",
            "initialRows": 4
        }
    }
]